<svg width="750" height="500" viewBox="0 0 750 500" fill="none" xmlns="http://www.w3.org/2000/svg">
<g clip-path="url(#clip0)">
<path d="M750 0H0V500H750V0Z" fill="url(#paint0_linear)"/>
<path opacity="0.4" d="M606.4 784.1C726.798 784.1 824.4 686.498 824.4 566.1C824.4 445.702 726.798 348.1 606.4 348.1C486.002 348.1 388.4 445.702 388.4 566.1C388.4 686.498 486.002 784.1 606.4 784.1Z" stroke="url(#paint1_linear)" stroke-width="1.5" stroke-miterlimit="10"/>
<path opacity="0.4" d="M537.5 392.7C595.324 392.7 642.2 345.824 642.2 288C642.2 230.176 595.324 183.3 537.5 183.3C479.676 183.3 432.8 230.176 432.8 288C432.8 345.824 479.676 392.7 537.5 392.7Z" stroke="url(#paint2_linear)" stroke-width="1.5" stroke-miterlimit="10"/>
<path opacity="0.4" d="M573.4 567.8C606.758 567.8 633.8 540.758 633.8 507.4C633.8 474.042 606.758 447 573.4 447C540.042 447 513 474.042 513 507.4C513 540.758 540.042 567.8 573.4 567.8Z" stroke="url(#paint3_linear)" stroke-width="1.5" stroke-miterlimit="10"/>
<path opacity="0.4" d="M332.2 577.2C403.113 577.2 460.6 519.713 460.6 448.8C460.6 377.887 403.113 320.4 332.2 320.4C261.287 320.4 203.8 377.887 203.8 448.8C203.8 519.713 261.287 577.2 332.2 577.2Z" stroke="url(#paint4_linear)" stroke-width="1.5" stroke-miterlimit="10"/>
<path opacity="0.4" d="M332.2 567.3C397.646 567.3 450.7 514.246 450.7 448.8C450.7 383.354 397.646 330.3 332.2 330.3C266.754 330.3 213.7 383.354 213.7 448.8C213.7 514.246 266.754 567.3 332.2 567.3Z" stroke="url(#paint5_linear)" stroke-width="1.5" stroke-miterlimit="10"/>
<path opacity="0.4" d="M332.2 557.3C392.123 557.3 440.7 508.723 440.7 448.8C440.7 388.877 392.123 340.3 332.2 340.3C272.277 340.3 223.7 388.877 223.7 448.8C223.7 508.723 272.277 557.3 332.2 557.3Z" stroke="url(#paint6_linear)" stroke-width="1.5" stroke-miterlimit="10"/>
<path opacity="0.4" d="M332.2 547.4C386.655 547.4 430.8 503.255 430.8 448.8C430.8 394.345 386.655 350.2 332.2 350.2C277.745 350.2 233.6 394.345 233.6 448.8C233.6 503.255 277.745 547.4 332.2 547.4Z" stroke="url(#paint7_linear)" stroke-width="1.5" stroke-miterlimit="10"/>
<path opacity="0.4" d="M774.3 201C845.213 201 902.7 143.513 902.7 72.6C902.7 1.68665 845.213 -55.8 774.3 -55.8C703.387 -55.8 645.9 1.68665 645.9 72.6C645.9 143.513 703.387 201 774.3 201Z" stroke="url(#paint8_linear)" stroke-width="1.5" stroke-miterlimit="10"/>
<path opacity="0.4" d="M774.3 191.1C839.746 191.1 892.8 138.046 892.8 72.6C892.8 7.15427 839.746 -45.9 774.3 -45.9C708.854 -45.9 655.8 7.15427 655.8 72.6C655.8 138.046 708.854 191.1 774.3 191.1Z" stroke="url(#paint9_linear)" stroke-width="1.5" stroke-miterlimit="10"/>
<path opacity="0.4" d="M774.3 181.1C834.223 181.1 882.8 132.523 882.8 72.6C882.8 12.6771 834.223 -35.9 774.3 -35.9C714.377 -35.9 665.8 12.6771 665.8 72.6C665.8 132.523 714.377 181.1 774.3 181.1Z" stroke="url(#paint10_linear)" stroke-width="1.5" stroke-miterlimit="10"/>
<path opacity="0.4" d="M774.3 171.2C828.755 171.2 872.9 127.055 872.9 72.6C872.9 18.1447 828.755 -26 774.3 -26C719.845 -26 675.7 18.1447 675.7 72.6C675.7 127.055 719.845 171.2 774.3 171.2Z" stroke="url(#paint11_linear)" stroke-width="1.5" stroke-miterlimit="10"/>
<path opacity="0.2" d="M84.7 592.9C125.459 592.9 158.5 559.859 158.5 519.1C158.5 478.341 125.459 445.3 84.7 445.3C43.9414 445.3 10.9 478.341 10.9 519.1C10.9 559.859 43.9414 592.9 84.7 592.9Z" fill="url(#paint12_linear)"/>
<path opacity="0.2" d="M686.8 477.9C711.377 477.9 731.3 457.977 731.3 433.4C731.3 408.823 711.377 388.9 686.8 388.9C662.223 388.9 642.3 408.823 642.3 433.4C642.3 457.977 662.223 477.9 686.8 477.9Z" fill="url(#paint13_linear)"/>
<path opacity="0.2" d="M774.3 146.4C815.059 146.4 848.1 113.359 848.1 72.6C848.1 31.8414 815.059 -1.19998 774.3 -1.19998C733.541 -1.19998 700.5 31.8414 700.5 72.6C700.5 113.359 733.541 146.4 774.3 146.4Z" fill="url(#paint14_linear)"/>
<path opacity="0.2" d="M537.5 335.6C563.789 335.6 585.1 314.289 585.1 288C585.1 261.711 563.789 240.4 537.5 240.4C511.211 240.4 489.9 261.711 489.9 288C489.9 314.289 511.211 335.6 537.5 335.6Z" fill="url(#paint15_linear)"/>
<path opacity="0.2" d="M322.4 481C348.689 481 370 459.689 370 433.4C370 407.111 348.689 385.8 322.4 385.8C296.111 385.8 274.8 407.111 274.8 433.4C274.8 459.689 296.111 481 322.4 481Z" fill="url(#paint16_linear)"/>
<path opacity="0.2" d="M534.8 231C543.526 231 550.6 223.926 550.6 215.2C550.6 206.474 543.526 199.4 534.8 199.4C526.074 199.4 519 206.474 519 215.2C519 223.926 526.074 231 534.8 231Z" fill="url(#paint17_linear)"/>
<path opacity="0.2" d="M503.9 478.3C525.715 478.3 543.4 460.615 543.4 438.8C543.4 416.985 525.715 399.3 503.9 399.3C482.085 399.3 464.4 416.985 464.4 438.8C464.4 460.615 482.085 478.3 503.9 478.3Z" fill="url(#paint18_linear)"/>
<path opacity="0.2" d="M196 461C216.987 461 234 443.987 234 423C234 402.013 216.987 385 196 385C175.013 385 158 402.013 158 423C158 443.987 175.013 461 196 461Z" fill="url(#paint19_linear)"/>
<path opacity="0.2" d="M498.3 46.9C501.835 46.9 504.7 44.0346 504.7 40.5C504.7 36.9654 501.835 34.1 498.3 34.1C494.765 34.1 491.9 36.9654 491.9 40.5C491.9 44.0346 494.765 46.9 498.3 46.9Z" fill="url(#paint20_linear)"/>
<path opacity="0.2" d="M606.4 718.9C690.789 718.9 759.2 650.489 759.2 566.1C759.2 481.711 690.789 413.3 606.4 413.3C522.011 413.3 453.6 481.711 453.6 566.1C453.6 650.489 522.011 718.9 606.4 718.9Z" fill="url(#paint21_linear)"/>
<path opacity="0.2" d="M736.9 500L478.8 241.9C439.5 202.6 375.7 202.6 336.4 241.9C297.1 281.2 297.1 345 336.4 384.3L452.1 500H736.9Z" fill="url(#paint22_linear)"/>
<path opacity="0.2" d="M759.7 183.6L607.1 31C583.8 7.70002 546.1 7.70002 522.9 31C499.6 54.3 499.6 92 522.9 115.2L759.7 355.8V183.6Z" fill="url(#paint23_linear)"/>
<path opacity="0.2" d="M752.4 319.7L556.1 123.4C550 117.3 540.1 117.3 533.9 123.4C527.8 129.5 527.8 139.4 533.9 145.6L752.4 365V319.7Z" fill="url(#paint24_linear)"/>
<path opacity="0.2" d="M750 378.3L663.1 291.4C654.1 282.4 639.4 282.4 630.4 291.4C621.4 300.4 621.4 315.1 630.4 324.1L750 445.3V378.3Z" fill="url(#paint25_linear)"/>
<path opacity="0.2" d="M510.2 500L213.7 203.5C191.4 181.2 155.3 181.2 133 203.5C110.7 225.8 110.7 261.9 133 284.2L348.9 500H510.2Z" fill="url(#paint26_linear)"/>
<path opacity="0.2" d="M548.9 500L278.6 229.8C267.2 218.4 248.7 218.4 237.2 229.8C225.8 241.2 225.8 259.7 237.2 271.2L466.1 500H548.9Z" fill="url(#paint27_linear)"/>
<path opacity="0.15" d="M687 547.4L214.2 74.6C210 70.4 203.3 70.4 199.1 74.6C194.9 78.8 194.9 85.5 199.1 89.7L656.8 547.4H687Z" fill="url(#paint28_linear)"/>
<path opacity="0.35" d="M594.2 270.9C595.36 270.9 596.3 269.96 596.3 268.8C596.3 267.64 595.36 266.7 594.2 266.7C593.04 266.7 592.1 267.64 592.1 268.8C592.1 269.96 593.04 270.9 594.2 270.9Z" fill="#44FFDD"/>
<path opacity="0.35" d="M578.1 381.5C579.26 381.5 580.2 380.56 580.2 379.4C580.2 378.24 579.26 377.3 578.1 377.3C576.94 377.3 576 378.24 576 379.4C576 380.56 576.94 381.5 578.1 381.5Z" fill="#44FFDD"/>
<path opacity="0.35" d="M322.4 492.2C323.56 492.2 324.5 491.26 324.5 490.1C324.5 488.94 323.56 488 322.4 488C321.24 488 320.3 488.94 320.3 490.1C320.3 491.26 321.24 492.2 322.4 492.2Z" fill="#44FFDD"/>
<path opacity="0.35" d="M505.5 162.6C506.66 162.6 507.6 161.66 507.6 160.5C507.6 159.34 506.66 158.4 505.5 158.4C504.34 158.4 503.4 159.34 503.4 160.5C503.4 161.66 504.34 162.6 505.5 162.6Z" fill="#44FFDD"/>
<path opacity="0.35" d="M705.9 28.2C707.06 28.2 708 27.2598 708 26.1C708 24.9402 707.06 24 705.9 24C704.74 24 703.8 24.9402 703.8 26.1C703.8 27.2598 704.74 28.2 705.9 28.2Z" fill="#44FFDD"/>
<path opacity="0.35" d="M731.3 435.5C732.46 435.5 733.4 434.56 733.4 433.4C733.4 432.24 732.46 431.3 731.3 431.3C730.14 431.3 729.2 432.24 729.2 433.4C729.2 434.56 730.14 435.5 731.3 435.5Z" fill="#44FFDD"/>
<path opacity="0.35" d="M375 480C376.16 480 377.1 479.06 377.1 477.9C377.1 476.74 376.16 475.8 375 475.8C373.84 475.8 372.9 476.74 372.9 477.9C372.9 479.06 373.84 480 375 480Z" fill="#44FFDD"/>
<path opacity="0.35" d="M594.2 394C595.36 394 596.3 393.06 596.3 391.9C596.3 390.74 595.36 389.8 594.2 389.8C593.04 389.8 592.1 390.74 592.1 391.9C592.1 393.06 593.04 394 594.2 394Z" fill="#44FFDD"/>
<path opacity="0.35" d="M548.9 483.1C550.06 483.1 551 482.16 551 481C551 479.84 550.06 478.9 548.9 478.9C547.74 478.9 546.8 479.84 546.8 481C546.8 482.16 547.74 483.1 548.9 483.1Z" fill="#44FFDD"/>
<path opacity="0.35" d="M344.5 252.1C345.66 252.1 346.6 251.16 346.6 250C346.6 248.84 345.66 247.9 344.5 247.9C343.34 247.9 342.4 248.84 342.4 250C342.4 251.16 343.34 252.1 344.5 252.1Z" fill="#44FFDD"/>
<path opacity="0.35" d="M188.1 396.6C189.26 396.6 190.2 395.66 190.2 394.5C190.2 393.34 189.26 392.4 188.1 392.4C186.94 392.4 186 393.34 186 394.5C186 395.66 186.94 396.6 188.1 396.6Z" fill="#44FFDD"/>
<path opacity="0.35" d="M617.8 90.8C618.96 90.8 619.9 89.8598 619.9 88.7C619.9 87.5402 618.96 86.6 617.8 86.6C616.64 86.6 615.7 87.5402 615.7 88.7C615.7 89.8598 616.64 90.8 617.8 90.8Z" fill="#44FFDD"/>
<path opacity="0.35" d="M464.3 310.7C465.46 310.7 466.4 309.76 466.4 308.6C466.4 307.44 465.46 306.5 464.3 306.5C463.14 306.5 462.2 307.44 462.2 308.6C462.2 309.76 463.14 310.7 464.3 310.7Z" fill="#44FFDD"/>
<path opacity="0.35" d="M339.3 80.5C340.46 80.5 341.4 79.5598 341.4 78.4C341.4 77.2402 340.46 76.3 339.3 76.3C338.14 76.3 337.2 77.2402 337.2 78.4C337.2 79.5598 338.14 80.5 339.3 80.5Z" fill="#44FFDD"/>
<path opacity="0.35" d="M67.4 350.2C68.5598 350.2 69.5 349.26 69.5 348.1C69.5 346.94 68.5598 346 67.4 346C66.2402 346 65.3 346.94 65.3 348.1C65.3 349.26 66.2402 350.2 67.4 350.2Z" fill="#44FFDD"/>
<path opacity="0.35" d="M122.6 132.9C123.76 132.9 124.7 131.96 124.7 130.8C124.7 129.64 123.76 128.7 122.6 128.7C121.44 128.7 120.5 129.64 120.5 130.8C120.5 131.96 121.44 132.9 122.6 132.9Z" fill="#44FFDD"/>
<path opacity="0.4" d="M283.3 5.20001L538.7 260.6" stroke="url(#paint29_radial)" stroke-width="1.5" stroke-miterlimit="10"/>
<path opacity="0.4" d="M228.1 372.3L483.5 627.7" stroke="url(#paint30_radial)" stroke-width="1.5" stroke-miterlimit="10"/>
<path opacity="0.4" d="M183.6 305.7L438.9 561.1" stroke="url(#paint31_radial)" stroke-width="1.5" stroke-miterlimit="10"/>
<path opacity="0.4" d="M-3 388.9L252.4 644.2" stroke="url(#paint32_radial)" stroke-width="1.5" stroke-miterlimit="10"/>
<path opacity="0.4" d="M614.7 142.6L870 398" stroke="url(#paint33_radial)" stroke-width="1.5" stroke-miterlimit="10"/>
</g>
<defs>
<linearGradient id="paint0_linear" x1="62.5" y1="-62.5" x2="687.5" y2="562.5" gradientUnits="userSpaceOnUse">
<stop offset="0.00113137" stop-color="#FFA901"/>
<stop offset="0.2475" stop-color="#FFB524"/>
<stop offset="0.605563" stop-color="#FF8A01"/>
<stop offset="0.8642" stop-color="#FF6C01"/>
<stop offset="1" stop-color="#FF9315"/>
</linearGradient>
<linearGradient id="paint1_linear" x1="451.722" y1="411.457" x2="761.075" y2="720.81" gradientUnits="userSpaceOnUse">
<stop stop-color="#44FFDD"/>
<stop offset="0.7426" stop-color="#44FFDD" stop-opacity="0"/>
</linearGradient>
<linearGradient id="paint2_linear" x1="462.971" y1="213.426" x2="612.129" y2="362.583" gradientUnits="userSpaceOnUse">
<stop stop-color="#44FFDD"/>
<stop offset="0.7426" stop-color="#44FFDD" stop-opacity="0"/>
</linearGradient>
<linearGradient id="paint3_linear" x1="530.135" y1="464.166" x2="616.6" y2="550.63" gradientUnits="userSpaceOnUse">
<stop stop-color="#44FFDD"/>
<stop offset="0.7426" stop-color="#44FFDD" stop-opacity="0"/>
</linearGradient>
<linearGradient id="paint4_linear" x1="240.839" y1="357.466" x2="423.509" y2="540.137" gradientUnits="userSpaceOnUse">
<stop stop-color="#44FFDD"/>
<stop offset="0.7426" stop-color="#44FFDD" stop-opacity="0"/>
</linearGradient>
<linearGradient id="paint5_linear" x1="247.876" y1="364.503" x2="416.473" y2="533.1" gradientUnits="userSpaceOnUse">
<stop stop-color="#44FFDD"/>
<stop offset="0.7426" stop-color="#44FFDD" stop-opacity="0"/>
</linearGradient>
<linearGradient id="paint6_linear" x1="254.913" y1="371.54" x2="409.436" y2="526.063" gradientUnits="userSpaceOnUse">
<stop stop-color="#44FFDD"/>
<stop offset="0.7426" stop-color="#44FFDD" stop-opacity="0"/>
</linearGradient>
<linearGradient id="paint7_linear" x1="261.949" y1="378.577" x2="402.399" y2="519.026" gradientUnits="userSpaceOnUse">
<stop stop-color="#44FFDD"/>
<stop offset="0.7426" stop-color="#44FFDD" stop-opacity="0"/>
</linearGradient>
<linearGradient id="paint8_linear" x1="682.926" y1="-18.7125" x2="865.597" y2="163.958" gradientUnits="userSpaceOnUse">
<stop stop-color="#44FFDD"/>
<stop offset="0.7426" stop-color="#44FFDD" stop-opacity="0"/>
</linearGradient>
<linearGradient id="paint9_linear" x1="689.963" y1="-11.6757" x2="858.56" y2="156.921" gradientUnits="userSpaceOnUse">
<stop stop-color="#44FFDD"/>
<stop offset="0.7426" stop-color="#44FFDD" stop-opacity="0"/>
</linearGradient>
<linearGradient id="paint10_linear" x1="697" y1="-4.63879" x2="851.523" y2="149.884" gradientUnits="userSpaceOnUse">
<stop stop-color="#44FFDD"/>
<stop offset="0.7426" stop-color="#44FFDD" stop-opacity="0"/>
</linearGradient>
<linearGradient id="paint11_linear" x1="704.037" y1="2.3981" x2="844.486" y2="142.848" gradientUnits="userSpaceOnUse">
<stop stop-color="#44FFDD"/>
<stop offset="0.7426" stop-color="#44FFDD" stop-opacity="0"/>
</linearGradient>
<linearGradient id="paint12_linear" x1="32.5163" y1="466.899" x2="136.898" y2="571.281" gradientUnits="userSpaceOnUse">
<stop stop-color="#44FFDD"/>
<stop offset="0.1012" stop-color="#44FFDD" stop-opacity="0.8847"/>
<stop offset="0.8778" stop-color="#44FFDD" stop-opacity="0"/>
</linearGradient>
<linearGradient id="paint13_linear" x1="655.306" y1="401.907" x2="718.253" y2="464.854" gradientUnits="userSpaceOnUse">
<stop stop-color="#44FFDD"/>
<stop offset="0.1012" stop-color="#44FFDD" stop-opacity="0.8847"/>
<stop offset="0.8778" stop-color="#44FFDD" stop-opacity="0"/>
</linearGradient>
<linearGradient id="paint14_linear" x1="722.07" y1="20.4317" x2="826.452" y2="124.814" gradientUnits="userSpaceOnUse">
<stop stop-color="#44FFDD"/>
<stop offset="0.1012" stop-color="#44FFDD" stop-opacity="0.8847"/>
<stop offset="0.8778" stop-color="#44FFDD" stop-opacity="0"/>
</linearGradient>
<linearGradient id="paint15_linear" x1="503.897" y1="254.352" x2="571.202" y2="321.657" gradientUnits="userSpaceOnUse">
<stop stop-color="#44FFDD"/>
<stop offset="0.1012" stop-color="#44FFDD" stop-opacity="0.8847"/>
<stop offset="0.8778" stop-color="#44FFDD" stop-opacity="0"/>
</linearGradient>
<linearGradient id="paint16_linear" x1="288.779" y1="399.728" x2="356.084" y2="467.033" gradientUnits="userSpaceOnUse">
<stop stop-color="#44FFDD"/>
<stop offset="0.1012" stop-color="#44FFDD" stop-opacity="0.8847"/>
<stop offset="0.8778" stop-color="#44FFDD" stop-opacity="0"/>
</linearGradient>
<linearGradient id="paint17_linear" x1="523.69" y1="204.11" x2="545.971" y2="226.39" gradientUnits="userSpaceOnUse">
<stop stop-color="#44FFDD"/>
<stop offset="0.1012" stop-color="#44FFDD" stop-opacity="0.8847"/>
<stop offset="0.8778" stop-color="#44FFDD" stop-opacity="0"/>
</linearGradient>
<linearGradient id="paint18_linear" x1="475.912" y1="410.861" x2="531.792" y2="466.741" gradientUnits="userSpaceOnUse">
<stop stop-color="#44FFDD"/>
<stop offset="0.1012" stop-color="#44FFDD" stop-opacity="0.8847"/>
<stop offset="0.8778" stop-color="#44FFDD" stop-opacity="0"/>
</linearGradient>
<linearGradient id="paint19_linear" x1="169.148" y1="396.19" x2="222.86" y2="449.902" gradientUnits="userSpaceOnUse">
<stop stop-color="#44FFDD"/>
<stop offset="0.1012" stop-color="#44FFDD" stop-opacity="0.8847"/>
<stop offset="0.8778" stop-color="#44FFDD" stop-opacity="0"/>
</linearGradient>
<linearGradient id="paint20_linear" x1="493.771" y1="36.0344" x2="502.787" y2="45.0508" gradientUnits="userSpaceOnUse">
<stop stop-color="#44FFDD"/>
<stop offset="0.1012" stop-color="#44FFDD" stop-opacity="0.8847"/>
<stop offset="0.8778" stop-color="#44FFDD" stop-opacity="0"/>
</linearGradient>
<linearGradient id="paint21_linear" x1="498.385" y1="458.12" x2="714.412" y2="674.147" gradientUnits="userSpaceOnUse">
<stop stop-color="#44FFDD"/>
<stop offset="0.1012" stop-color="#44FFDD" stop-opacity="0.8847"/>
<stop offset="0.8778" stop-color="#44FFDD" stop-opacity="0"/>
</linearGradient>
<linearGradient id="paint22_linear" x1="463.161" y1="193.986" x2="558.002" y2="547.936" gradientUnits="userSpaceOnUse">
<stop stop-color="#44FFDD"/>
<stop offset="0.1012" stop-color="#44FFDD" stop-opacity="0.8847"/>
<stop offset="0.8778" stop-color="#44FFDD" stop-opacity="0"/>
</linearGradient>
<linearGradient id="paint23_linear" x1="597.851" y1="2.6489" x2="696.984" y2="372.617" gradientUnits="userSpaceOnUse">
<stop stop-color="#44FFDD"/>
<stop offset="0.1012" stop-color="#44FFDD" stop-opacity="0.8847"/>
<stop offset="0.8778" stop-color="#44FFDD" stop-opacity="0"/>
</linearGradient>
<linearGradient id="paint24_linear" x1="606.954" y1="101.617" x2="682.539" y2="383.701" gradientUnits="userSpaceOnUse">
<stop stop-color="#44FFDD"/>
<stop offset="0.1012" stop-color="#44FFDD" stop-opacity="0.8847"/>
<stop offset="0.8778" stop-color="#44FFDD" stop-opacity="0"/>
</linearGradient>
<linearGradient id="paint25_linear" x1="668.9" y1="277.863" x2="716.187" y2="454.341" gradientUnits="userSpaceOnUse">
<stop stop-color="#44FFDD"/>
<stop offset="0.1012" stop-color="#44FFDD" stop-opacity="0.8847"/>
<stop offset="0.8778" stop-color="#44FFDD" stop-opacity="0"/>
</linearGradient>
<linearGradient id="paint26_linear" x1="256.195" y1="162.565" x2="357.572" y2="540.908" gradientUnits="userSpaceOnUse">
<stop stop-color="#44FFDD"/>
<stop offset="0.1012" stop-color="#44FFDD" stop-opacity="0.8847"/>
<stop offset="0.8778" stop-color="#44FFDD" stop-opacity="0"/>
</linearGradient>
<linearGradient id="paint27_linear" x1="340.773" y1="197.98" x2="430.217" y2="531.79" gradientUnits="userSpaceOnUse">
<stop stop-color="#44FFDD"/>
<stop offset="0.1012" stop-color="#44FFDD" stop-opacity="0.8847"/>
<stop offset="0.8778" stop-color="#44FFDD" stop-opacity="0"/>
</linearGradient>
<linearGradient id="paint28_linear" x1="364.662" y1="28.8011" x2="515.902" y2="593.234" gradientUnits="userSpaceOnUse">
<stop stop-color="#44FFDD"/>
<stop offset="0.1012" stop-color="#44FFDD" stop-opacity="0.8847"/>
<stop offset="0.8778" stop-color="#44FFDD" stop-opacity="0"/>
</linearGradient>
<radialGradient id="paint29_radial" cx="0" cy="0" r="1" gradientUnits="userSpaceOnUse" gradientTransform="translate(410.979 132.894) scale(128.21)">
<stop stop-color="#44FFDD"/>
<stop offset="1" stop-color="#44FFDD" stop-opacity="0"/>
</radialGradient>
<radialGradient id="paint30_radial" cx="0" cy="0" r="1" gradientUnits="userSpaceOnUse" gradientTransform="translate(355.782 500) scale(128.21)">
<stop stop-color="#44FFDD"/>
<stop offset="1" stop-color="#44FFDD" stop-opacity="0"/>
</radialGradient>
<radialGradient id="paint31_radial" cx="0" cy="0" r="1" gradientUnits="userSpaceOnUse" gradientTransform="translate(311.232 433.38) scale(128.21)">
<stop stop-color="#44FFDD"/>
<stop offset="1" stop-color="#44FFDD" stop-opacity="0"/>
</radialGradient>
<radialGradient id="paint32_radial" cx="0" cy="0" r="1" gradientUnits="userSpaceOnUse" gradientTransform="translate(124.725 516.55) scale(128.21)">
<stop stop-color="#44FFDD"/>
<stop offset="1" stop-color="#44FFDD" stop-opacity="0"/>
</radialGradient>
<radialGradient id="paint33_radial" cx="0" cy="0" r="1" gradientUnits="userSpaceOnUse" gradientTransform="translate(742.366 270.283) scale(128.21)">
<stop stop-color="#44FFDD"/>
<stop offset="1" stop-color="#44FFDD" stop-opacity="0"/>
</radialGradient>
<clipPath id="clip0">
<rect width="750" height="500" fill="white"/>
</clipPath>
</defs>
</svg>
